…
``` r
betavolume(example_meta_composition, weights = T)
#> [1] 3.099582
```

We can disentagle the individual contribution of a patch to the overall
beta diversity. We find that

``` r
disentangle_individual_contribution(example_meta_composition, weights = T) %>% 
  enframe(name = "species", value = 'contribution') %>% 
  arrange(-contribution)
#> # A tibble: 81 × 2
#>    species contribution
#>      <int>        <dbl>
#>  1      41      0.917  
#>  2      45      0.0197 
#>  3      24      0.00901
#>  4      20      0.00856
#>  5      15      0.00812
#>  6      65      0.00654
#>  7      37      0.00603
#>  8      52      0.00488
#>  9      59      0.00407
#> 10      27      0.00385
#> # … with 71 more rows
```
